{
    "dataDirectory": ".",
    "webhook": "https://discord.com/api/webhooks/ABCD",
    "targets": [
      {
        "name": "HackerOne",
        "url": "https://hackerone.com/graphql",
        "verb": "POST",
        "type": "Introspection",
        "headers": {
          "X-Random-Header": "123",
          "Authorization": "Basic ___ENV-SECRET_TOKEN___"
        }
      },
      {
        "name": "GitLab",
        "url": "https://gitlab.com/gitlab-org/gitlab/-/raw/master/doc/api/graphql/reference/gitlab_schema.graphql",
        "type": "Schema"
      }
    ]
  }